module soli/formations

go 1.22

require (
	dario.cat/mergo v1.0.0 // indirect
	filippo.io/edwards25519 v1.1.0 // indirect
	github.com/BurntSushi/toml v1.3.2 // indirect
	github.com/Knetic/govaluate v3.0.1-0.20171022003610-9aa49832a739+incompatible // indirect
	github.com/KyleBanks/depth v1.2.1 // indirect
	github.com/Microsoft/go-winio v0.6.1 // indirect
	github.com/ProtonMail/go-crypto v1.0.0 // indirect
	github.com/bytedance/sonic v1.11.3 // indirect
	github.com/casbin/govaluate v1.1.0 // indirect
	github.com/chenzhuoyu/base64x v0.0.0-20230717121745-296ad89f973d // indirect
	github.com/chenzhuoyu/iasm v0.9.1 // indirect
	github.com/cloudflare/circl v1.3.7 // indirect
	github.com/cyphar/filepath-securejoin v0.2.4 // indirect
	github.com/davecgh/go-spew v1.1.2-0.20180830191138-d8f796af33cc // indirect
	github.com/dustin/go-humanize v1.0.1 // indirect
	github.com/emirpasic/gods v1.18.1 // indirect
	github.com/gabriel-vasile/mimetype v1.4.3 // indirect
	github.com/gin-contrib/sse v0.1.0 // indirect
	github.com/glebarez/go-sqlite v1.20.3 // indirect
	github.com/glebarez/sqlite v1.7.0 // indirect
	github.com/go-git/gcfg v1.5.1-0.20230307220236-3a3c6141e376 // indirect
	github.com/go-openapi/jsonpointer v0.21.0 // indirect
	github.com/go-openapi/jsonreference v0.21.0 // indirect
	github.com/go-openapi/spec v0.21.0 // indirect
	github.com/go-openapi/swag v0.23.0 // indirect
	github.com/go-playground/locales v0.14.1 // indirect
	github.com/go-playground/universal-translator v0.18.1 // indirect
	github.com/go-playground/validator/v10 v10.19.0 // indirect
	github.com/go-sql-driver/mysql v1.8.1 // indirect
	github.com/goccy/go-json v0.10.2 // indirect
	github.com/golang-jwt/jwt/v4 v4.5.0 // indirect
	github.com/golang-sql/civil v0.0.0-20220223132316-b832511892a9 // indirect
	github.com/golang-sql/sqlexp v0.1.0 // indirect
	github.com/golang/groupcache v0.0.0-20210331224755-41bb18bfe9da // indirect
	github.com/golang/protobuf v1.5.4 // indirect
	github.com/jackc/pgpassfile v1.0.0 // indirect
	github.com/jackc/pgservicefile v0.0.0-20231201235250-de7065d80cb9 // indirect
	github.com/jackc/pgx/v5 v5.5.5 // indirect
	github.com/jackc/puddle/v2 v2.2.1 // indirect
	github.com/jbenet/go-context v0.0.0-20150711004518-d14ea06fba99 // indirect
	github.com/jinzhu/inflection v1.0.0 // indirect
	github.com/jinzhu/now v1.1.5 // indirect
	github.com/josharian/intern v1.0.0 // indirect
	github.com/json-iterator/go v1.1.12 // indirect
	github.com/kevinburke/ssh_config v1.2.0 // indirect
	github.com/klauspost/cpuid/v2 v2.2.7 // indirect
	github.com/leodido/go-urn v1.4.0 // indirect
	github.com/lib/pq v1.10.9 // indirect
	github.com/mailru/easyjson v0.7.7 // indirect
	github.com/mattn/go-isatty v0.0.20 // indirect
	github.com/mattn/go-sqlite3 v1.14.22 // indirect
	github.com/microsoft/go-mssqldb v1.6.0 // indirect
	github.com/modern-go/concurrent v0.0.0-20180306012644-bacd9c7ef1dd // indirect
	github.com/modern-go/reflect2 v1.0.2 // indirect
	github.com/pelletier/go-toml/v2 v2.2.0 // indirect
	github.com/pjbgf/sha1cd v0.3.0 // indirect
	github.com/pmezard/go-difflib v1.0.1-0.20181226105442-5d4384ee4fb2 // indirect
	github.com/remyoudompheng/bigfft v0.0.0-20230126093431-47fa9a501578 // indirect
	github.com/rs/cors v1.10.1 // indirect
	github.com/sergi/go-diff v1.3.2-0.20230802210424-5b0b94c5c0d3 // indirect
	github.com/skeema/knownhosts v1.2.2 // indirect
	github.com/stretchr/testify v1.9.0 // indirect
	github.com/tidwall/gjson v1.14.4 // indirect
	github.com/tidwall/match v1.1.1 // indirect
	github.com/tidwall/pretty v1.2.0 // indirect
	github.com/twitchyliquid64/golang-asm v0.15.1 // indirect
	github.com/ugorji/go/codec v1.2.12 // indirect
	github.com/xanzy/ssh-agent v0.3.3 // indirect
	golang.org/x/arch v0.7.0 // indirect
	golang.org/x/mod v0.16.0 // indirect
	golang.org/x/net v0.22.0 // indirect
	golang.org/x/oauth2 v0.18.0 // indirect
	golang.org/x/sync v0.6.0 // indirect
	golang.org/x/sys v0.19.0 // indirect
	golang.org/x/tools v0.19.0 // indirect
	google.golang.org/appengine v1.6.8 // indirect
	google.golang.org/protobuf v1.33.0 // indirect
	gopkg.in/warnings.v0 v0.1.2 // indirect
	gopkg.in/yaml.v2 v2.4.0 // indirect
	gopkg.in/yaml.v3 v3.0.1 // indirect
	gorm.io/datatypes v1.2.1 // indirect
	gorm.io/driver/mysql v1.5.6 // indirect
	gorm.io/driver/sqlserver v1.5.3 // indirect
	gorm.io/plugin/dbresolver v1.3.0 // indirect
	modernc.org/libc v1.22.2 // indirect
	modernc.org/mathutil v1.5.0 // indirect
	modernc.org/memory v1.5.0 // indirect
	modernc.org/sqlite v1.20.3 // indirect
)

require (
	github.com/adrg/frontmatter v0.2.0
	github.com/casbin/casbin/v2 v2.97.0
	github.com/casbin/gorm-adapter/v3 v3.25.0
	github.com/casdoor/casdoor-go-sdk v0.41.0
	github.com/docker/docker v27.1.2+incompatible
	github.com/gertd/go-pluralize v0.2.1
	github.com/gin-gonic/gin v1.9.1
	github.com/go-git/go-billy/v5 v5.5.0
	github.com/go-git/go-git/v5 v5.12.0
	github.com/google/uuid v1.6.0
	github.com/gorilla/websocket v1.5.3
	github.com/joho/godotenv v1.5.1
	github.com/mitchellh/mapstructure v1.5.0
	github.com/rs/cors/wrapper/gin v0.0.0-20240228164225-8d33ca4794ea
	github.com/swaggo/files v1.0.1
	github.com/swaggo/gin-swagger v1.6.0
	github.com/swaggo/swag v1.16.3
	golang.org/x/crypto v0.22.0
	golang.org/x/text v0.14.0
	gorm.io/driver/postgres v1.5.7
	gorm.io/driver/sqlite v1.5.5
	gorm.io/gorm v1.25.11
)
